Summary of COV-ID 19 cases in Toronto - Covid-19 Cases in Toronto
…
# get all resources for this package
resources <- list_package_resources("64b54586-6180-4485-83eb-81e8fae3b8fe")
 
# identify datastore resources; by default, Toronto Open Data sets datastore resource format to CSV for non-geospatial and GeoJSON for geospatial resources
datastore_resources <- filter(resources, tolower(format) %in% c('csv', 'geojson'))
 
# load the first datastore resource as a sample
data <- filter(datastore_resources, row_number()==1) %>% get_resource()
data
## # A tibble: 17,872 x 18
##     `_id` Assigned_ID `Outbreak Assoc… `Age Group` `Neighbourhood … FSA  
##     <int>       <int> <chr>            <chr>       <chr>            <chr>
##  1 143647           1 Sporadic         50 to 59 Y… Willowdale East  M2N  
##  2 143648           2 Sporadic         50 to 59 Y… Willowdale East  M2N  
##  3 143649           3 Sporadic         20 to 29 Y… Parkwoods-Donal… M3A  
##  4 143650           4 Sporadic         60 to 69 Y… Church-Yonge Co… M4W  
##  5 143651           5 Sporadic         60 to 69 Y… Church-Yonge Co… M4W  
##  6 143652           6 Sporadic         50 to 59 Y… Newtonbrook West M2R  
##  7 143653           7 Sporadic         80 to 89 Y… Milliken         M1V  
##  8 143654           8 Sporadic         60 to 69 Y… Willowdale West  M2N  
##  9 143655           9 Sporadic         50 to 59 Y… Willowdale East  M2N  
## 10 143656          10 Sporadic         60 to 69 Y… Henry Farm       M2J  
## # … with 17,862 more rows, and 12 more variables: `Source of Infection` <chr>,
## #   Classification <chr>, `Episode Date` <chr>, `Reported Date` <chr>, `Client
## #   Gender` <chr>, Outcome <chr>, `Currently Hospitalized` <chr>, `Currently in
## #   ICU` <chr>, `Currently Intubated` <chr>, `Ever Hospitalized` <chr>, `Ever
## #   in ICU` <chr>, `Ever Intubated` <chr>
…
table_count <- data %>%
  group_by(data$`Neighbourhood Name`) %>%
  tally() 
table_count
## # A tibble: 141 x 2
##    `data$\`Neighbourhood Name\``     n
##    <chr>                         <int>
##  1 Agincourt North                 103
##  2 Agincourt South-Malvern West     68
##  3 Alderwood                        55
##  4 Annex                           107
##  5 Banbury-Don Mills                49
##  6 Bathurst Manor                  140
##  7 Bay Street Corridor              77
##  8 Bayview Village                  44
##  9 Bayview Woods-Steeles           121
## 10 Bedford Park-Nortown            102
## # … with 131 more rows
…
